[   {
    "firstname": "Ric",
    "lastname": "Telford",
    "wherefrom": "Chatham County, NC",
    "gender": "",
    "hobbies": ["Golf"],
    "role": "",
    "degree": "",
    "languages": ["Swift"],
    "picture": "",
    "team": "",
    "netid": "rt113",
    "email": "",
    "department": "",
    "id": ""
  },
  {
    "firstname": "Rishi",
    "lastname": "Ravula",
    "wherefrom": "Unknown",
    "gender": "",
    "hobbies": ["Unknown"],
    "role": "",
    "degree": "",
    "languages": ["Swift"],
    "picture": "",
    "team": "",
    "netid": "rkr20",
    "email": "",
    "department": "",
    "id": ""
  },
  {
    "firstname": "Aniket",
    "lastname": "Mukherjee",
    "wherefrom": "New Delhi, India",
    "gender": "",
    "hobbies": ["Tennis, Running"],
    "role": "",
    "degree": "",
    "languages": ["Python, Java, Swift"],
    "picture": "",
    "team": "",
    "netid": "am930",
    "email": "",
    "department": "",
    "id": ""
  },
  {
      "firstname": "Marcus",
      "lastname": "Cox",
      "wherefrom": "Charleston, SC",
      "gender": "",
      "hobbies": ["Lifting Weights"],
      "role": "",
      "degree": "",
      "languages": ["C++"],
      "picture": "",
      "team": "",
      "netid": "mac194",
      "email": "",
      "department": "",
      "id": ""
    },
    {
      "firstname": "Ning",
      "lastname": "Ding",
      "wherefrom": "Durham, NC",
      "gender": "",
      "hobbies": ["Video Gaming"],
      "role": "",
      "degree": "",
      "languages": ["Java"],
      "picture": "",
      "team": "",
      "netid": "nd157",
      "email": "",
      "department": "",
      "id": ""
    },
    {
      "firstname": "Yuan",
      "lastname": "Fang",
      "wherefrom": "Durham, NC",
      "gender": "",
      "hobbies": ["Music", "Video"],
      "role": "",
      "degree": "",
      "languages": ["C++"],
      "picture": "",
      "team": "",
      "netid": "yf147",
      "email": "",
      "department": "",
      "id": ""
    },
    {
      "firstname": "Chloe",
      "lastname": "Kang",
      "wherefrom": "Chapel Hill, NC",
      "gender": "",
      "hobbies": ["Tennis", "Badminton"],
      "role": "",
      "degree": "",
      "languages": ["Python"],
      "picture": "",
      "team": "",
      "netid": "yk234",
      "email": "",
      "department": "",
      "id": ""
    },
    {
      "firstname": "Tianjun",
      "lastname": "Mo",
      "wherefrom": "Durham, NC",
      "gender": "",
      "hobbies": ["Hiking"],
      "role": "",
      "degree": "",
      "languages": ["Python"],
      "picture": "",
      "team": "",
      "netid": "tm326",
      "email": "",
      "department": "",
      "id": ""
    },
    {
      "firstname": "Rashaad",
      "lastname": "Ratliff-Brown",
      "wherefrom": "Raleigh, NC",
      "gender": "",
      "hobbies": ["Triathlon"],
      "role": "",
      "degree": "",
      "languages": ["Python"],
      "picture": "",
      "team": "",
      "netid": "rmr53",
      "email": "",
      "department": "",
      "id": ""
    },
    {
      "firstname": "Abhilash",
      "lastname": "Sarnad",
      "wherefrom": "Durham, NC",
      "gender": "",
      "hobbies": ["UFC"],
      "role": "",
      "degree": "",
      "languages": ["Python"],
      "picture": "",
      "team": "",
      "netid": "as1202",
      "email": "",
      "department": "",
      "id": ""
    },
    {
      "firstname": "Sophie",
      "lastname": "Shi",
      "wherefrom": "Durham, NC",
      "gender": "",
      "hobbies": ["Cooking", "Baking"],
      "role": "",
      "degree": "",
      "languages": ["Python"],
      "picture": "",
      "team": "",
      "netid": "ys331",
      "email": "",
      "department": "",
      "id": ""
    },
    {
      "firstname": "Rocco",
      "lastname": "Su",
      "wherefrom": "Durham, NC",
      "gender": "",
      "hobbies": ["Music", "Swimming"],
      "role": "",
      "degree": "",
      "languages": ["C++"],
      "picture": "",
      "team": "",
      "netid": "rs590",
      "email": "",
      "department": "",
      "id": ""
    },
    {
      "firstname": "Yingxu",
      "lastname": "Wang",
      "wherefrom": "Durham, NC",
      "gender": "",
      "hobbies": ["Music"],
      "role": "",
      "degree": "",
      "languages": ["C++"],
      "picture": "",
      "team": "",
      "netid": "yw473",
      "email": "",
      "department": "",
      "id": ""
    },
    {
      "firstname": "Braeden",
      "lastname": "Ward",
      "wherefrom": "Dedham, ME",
      "gender": "",
      "hobbies": ["Skiing", "Drawing"],
      "role": "",
      "degree": "",
      "languages": ["Python"],
      "picture": "",
      "team": "",
      "netid": "bmw54",
      "email": "",
      "department": "",
      "id": ""
    },
    {
      "firstname": "Jinyi",
      "lastname": "Xie",
      "wherefrom": "Durham, NC",
      "gender": "",
      "hobbies": ["Video games"],
      "role": "",
      "degree": "",
      "languages": ["Python"],
      "picture": "",
      "team": "",
      "netid": "jx124",
      "email": "",
      "department": "",
      "id": ""
    },
    {
      "firstname": "Yuankai",
      "lastname": "Zhu",
      "wherefrom": "Durham, NC",
      "gender": "",
      "hobbies": ["Photography"],
      "role": "",
      "degree": "",
      "languages": ["C++"],
      "picture": "",
      "team": "",
      "netid": "yz726",
      "email": "",
      "department": "",
      "id": ""
    }
]
